project_benches/proj_2/sim/transcript
# vsim -c -classdebug -msgmode both -do "run -a; quit" optimized_debug_top_tb 
# Start time: 16:08:08 on Apr 04,2023
# //  Questa Sim
# //  Version 2022.2_1 linux May 19 2022
# //
# //  Copyright 1991-2022 Mentor Graphics Corporation
# //  All Rights Reserved.
# //
# //  QuestaSim and its associated documentation contain trade
# //  secrets and commercial or financial information that are the property of
# //  Mentor Graphics Corporation and are privileged, confidential,
# //  and exempt from disclosure under the Freedom of Information Act,
# //  5 U.S.C. Section 552. Furthermore, this information
# //  is prohibited from disclosure under the Trade Secrets Act,
# //  18 U.S.C. Section 1905.
# //
# Loading sv_std.std
# Loading work.i2c_if(fast)
# Loading work.operation(fast)
# Loading work.wb_if(fast)
# Loading work.ncsu_pkg(fast)
# Loading work.i2c_pkg(fast)
# Loading work.wb_pkg(fast)
# Loading work.i2cmb_env_pkg(fast)
# Loading work.top_sv_unit(fast)
# Loading work.top(fast)
# Loading work.i2c_if_sv_unit(fast)
# Loading work.i2c_if(fast__2)
# Loading work.wb_if(fast__2)
# Loading std.standard
# Loading std.textio(body)
# Loading ieee.std_logic_1164(body)
# Loading work.iicmb_m_wb(str)#1
# Loading work.wishbone(rtl)#1
# Loading ieee.numeric_std(body)
# Loading work.iicmb_pkg(body)
# Loading work.regblock(rtl)#1
# Loading work.iicmb_int_pkg(body)
# Loading work.iicmb_m(str)#1
# Loading work.mbyte(rtl)#1
# Loading work.mbit(rtl)#1
# Loading work.conditioner_mux(str)#1
# Loading work.conditioner(str)#1
# Loading work.filter(rtl)#1
# Loading work.bus_state(rtl)#1
# run -a
# ----------------------------------------------------------------
# //  NCSU Package 
# //  Version 1.0a
# ----------------------------------------------------------------
# 
# 
# NCSU_INFO:Time                    0:ncsu_component::build():  of test_bench.env.p0_wb_agent.driver called
# NCSU_INFO:Time                    0:ncsu_component::build():  of test_bench.env.p0_wb_agent.monitor called
# NCSU_INFO:Time                    0:ncsu_component::build():  of test_bench.env.p1_i2c_agent.driver called
# NCSU_INFO:Time                    0:ncsu_component::build():  of test_bench.env.p1_i2c_agent.monitor called
# NCSU_INFO:Time                    0:ncsu_component::build():  of test_bench.env.pred called
# NCSU_INFO:Time                    0:ncsu_component::build():  of test_bench.env.scbd called
# NCSU_INFO:Time                    0:ncsu_component::build():  of test_bench.env.coverage called
# ****************************************************************************
# Assignment 1 : Writing 0-31 inside the i2c
# ****************************************************************************
# NCSU_INFO:Time            299306500: i2c_monitor::run(): test_bench.env.p1_i2c_agent.monitor  i2c_ADDRESS:0x22 i2c_DATA :0x'{0, 1, 2, 3, 4, 5, 6, 7, 8, 9, 10, 11, 12, 13, 14, 15, 16, 17, 18, 19, 20, 21, 22, 23, 24, 25, 26, 27, 28, 29, 30, 31} OPERATION:0x0
# 
# ****************************************************************************
# Assignment 2 : Read 32 values from the i2c_bus
#  return: incrementing value form 100 to 131
# ****************************************************************************
# NCSU_INFO:Time            599040500: i2c_monitor::run(): test_bench.env.p1_i2c_agent.monitor  i2c_ADDRESS:0x22 i2c_DATA :0x'{100, 101, 102, 103, 104, 105, 106, 107, 108, 109, 110, 111, 112, 113, 114, 115, 116, 117, 118, 119, 120, 121, 122, 123, 124, 125, 126, 127, 128, 129, 130, 131} OPERATION:0x1
# 
# ****************************************************************************
# Assignment 3 Alternate write then read
# ****************************************************************************
# NCSU_INFO:Time            618586500: i2c_monitor::run(): test_bench.env.p1_i2c_agent.monitor  i2c_ADDRESS:0x22 i2c_DATA :0x'{64} OPERATION:0x0
# NCSU_INFO:Time            638122500: i2c_monitor::run(): test_bench.env.p1_i2c_agent.monitor  i2c_ADDRESS:0x22 i2c_DATA :0x'{63} OPERATION:0x1
# NCSU_INFO:Time            657658500: i2c_monitor::run(): test_bench.env.p1_i2c_agent.monitor  i2c_ADDRESS:0x22 i2c_DATA :0x'{65} OPERATION:0x0
# NCSU_INFO:Time            677194500: i2c_monitor::run(): test_bench.env.p1_i2c_agent.monitor  i2c_ADDRESS:0x22 i2c_DATA :0x'{62} OPERATION:0x1
# NCSU_INFO:Time            696730500: i2c_monitor::run(): test_bench.env.p1_i2c_agent.monitor  i2c_ADDRESS:0x22 i2c_DATA :0x'{66} OPERATION:0x0
# NCSU_INFO:Time            716266500: i2c_monitor::run(): test_bench.env.p1_i2c_agent.monitor  i2c_ADDRESS:0x22 i2c_DATA :0x'{61} OPERATION:0x1
# NCSU_INFO:Time            735802500: i2c_monitor::run(): test_bench.env.p1_i2c_agent.monitor  i2c_ADDRESS:0x22 i2c_DATA :0x'{67} OPERATION:0x0
# NCSU_INFO:Time            755338500: i2c_monitor::run(): test_bench.env.p1_i2c_agent.monitor  i2c_ADDRESS:0x22 i2c_DATA :0x'{60} OPERATION:0x1
# NCSU_INFO:Time            774874500: i2c_monitor::run(): test_bench.env.p1_i2c_agent.monitor  i2c_ADDRESS:0x22 i2c_DATA :0x'{68} OPERATION:0x0
# NCSU_INFO:Time            794410500: i2c_monitor::run(): test_bench.env.p1_i2c_agent.monitor  i2c_ADDRESS:0x22 i2c_DATA :0x'{59} OPERATION:0x1
# NCSU_INFO:Time            813946500: i2c_monitor::run(): test_bench.env.p1_i2c_agent.monitor  i2c_ADDRESS:0x22 i2c_DATA :0x'{69} OPERATION:0x0
# NCSU_INFO:Time            833482500: i2c_monitor::run(): test_bench.env.p1_i2c_agent.monitor  i2c_ADDRESS:0x22 i2c_DATA :0x'{58} OPERATION:0x1
# NCSU_INFO:Time            853018500: i2c_monitor::run(): test_bench.env.p1_i2c_agent.monitor  i2c_ADDRESS:0x22 i2c_DATA :0x'{70} OPERATION:0x0
# NCSU_INFO:Time            872554500: i2c_monitor::run(): test_bench.env.p1_i2c_agent.monitor  i2c_ADDRESS:0x22 i2c_DATA :0x'{57} OPERATION:0x1
# NCSU_INFO:Time            892090500: i2c_monitor::run(): test_bench.env.p1_i2c_agent.monitor  i2c_ADDRESS:0x22 i2c_DATA :0x'{71} OPERATION:0x0
# NCSU_INFO:Time            911626500: i2c_monitor::run(): test_bench.env.p1_i2c_agent.monitor  i2c_ADDRESS:0x22 i2c_DATA :0x'{56} OPERATION:0x1
# NCSU_INFO:Time            931162500: i2c_monitor::run(): test_bench.env.p1_i2c_agent.monitor  i2c_ADDRESS:0x22 i2c_DATA :0x'{72} OPERATION:0x0
# NCSU_INFO:Time            950698500: i2c_monitor::run(): test_bench.env.p1_i2c_agent.monitor  i2c_ADDRESS:0x22 i2c_DATA :0x'{55} OPERATION:0x1
# NCSU_INFO:Time            970234500: i2c_monitor::run(): test_bench.env.p1_i2c_agent.monitor  i2c_ADDRESS:0x22 i2c_DATA :0x'{73} OPERATION:0x0
# NCSU_INFO:Time            989770500: i2c_monitor::run(): test_bench.env.p1_i2c_agent.monitor  i2c_ADDRESS:0x22 i2c_DATA :0x'{54} OPERATION:0x1
# NCSU_INFO:Time           1009306500: i2c_monitor::run(): test_bench.env.p1_i2c_agent.monitor  i2c_ADDRESS:0x22 i2c_DATA :0x'{74} OPERATION:0x0
# NCSU_INFO:Time           1028842500: i2c_monitor::run(): test_bench.env.p1_i2c_agent.monitor  i2c_ADDRESS:0x22 i2c_DATA :0x'{53} OPERATION:0x1
# NCSU_INFO:Time           1048378500: i2c_monitor::run(): test_bench.env.p1_i2c_agent.monitor  i2c_ADDRESS:0x22 i2c_DATA :0x'{75} OPERATION:0x0
# NCSU_INFO:Time           1067914500: i2c_monitor::run(): test_bench.env.p1_i2c_agent.monitor  i2c_ADDRESS:0x22 i2c_DATA :0x'{52} OPERATION:0x1
# NCSU_INFO:Time           1087450500: i2c_monitor::run(): test_bench.env.p1_i2c_agent.monitor  i2c_ADDRESS:0x22 i2c_DATA :0x'{76} OPERATION:0x0
# NCSU_INFO:Time           1106986500: i2c_monitor::run(): test_bench.env.p1_i2c_agent.monitor  i2c_ADDRESS:0x22 i2c_DATA :0x'{51} OPERATION:0x1
# NCSU_INFO:Time           1126522500: i2c_monitor::run(): test_bench.env.p1_i2c_agent.monitor  i2c_ADDRESS:0x22 i2c_DATA :0x'{77} OPERATION:0x0
# NCSU_INFO:Time           1146058500: i2c_monitor::run(): test_bench.env.p1_i2c_agent.monitor  i2c_ADDRESS:0x22 i2c_DATA :0x'{50} OPERATION:0x1
# NCSU_INFO:Time           1165594500: i2c_monitor::run(): test_bench.env.p1_i2c_agent.monitor  i2c_ADDRESS:0x22 i2c_DATA :0x'{78} OPERATION:0x0
# NCSU_INFO:Time           1185130500: i2c_monitor::run(): test_bench.env.p1_i2c_agent.monitor  i2c_ADDRESS:0x22 i2c_DATA :0x'{49} OPERATION:0x1
# NCSU_INFO:Time           1204666500: i2c_monitor::run(): test_bench.env.p1_i2c_agent.monitor  i2c_ADDRESS:0x22 i2c_DATA :0x'{79} OPERATION:0x0
# NCSU_INFO:Time           1224202500: i2c_monitor::run(): test_bench.env.p1_i2c_agent.monitor  i2c_ADDRESS:0x22 i2c_DATA :0x'{48} OPERATION:0x1
# NCSU_INFO:Time           1243738500: i2c_monitor::run(): test_bench.env.p1_i2c_agent.monitor  i2c_ADDRESS:0x22 i2c_DATA :0x'{80} OPERATION:0x0
# NCSU_INFO:Time           1263274500: i2c_monitor::run(): test_bench.env.p1_i2c_agent.monitor  i2c_ADDRESS:0x22 i2c_DATA :0x'{47} OPERATION:0x1
# NCSU_INFO:Time           1282810500: i2c_monitor::run(): test_bench.env.p1_i2c_agent.monitor  i2c_ADDRESS:0x22 i2c_DATA :0x'{81} OPERATION:0x0
# NCSU_INFO:Time           1302346500: i2c_monitor::run(): test_bench.env.p1_i2c_agent.monitor  i2c_ADDRESS:0x22 i2c_DATA :0x'{46} OPERATION:0x1
# NCSU_INFO:Time           1321882500: i2c_monitor::run(): test_bench.env.p1_i2c_agent.monitor  i2c_ADDRESS:0x22 i2c_DATA :0x'{82} OPERATION:0x0
# NCSU_INFO:Time           1341418500: i2c_monitor::run(): test_bench.env.p1_i2c_agent.monitor  i2c_ADDRESS:0x22 i2c_DATA :0x'{45} OPERATION:0x1
# NCSU_INFO:Time           1360954500: i2c_monitor::run(): test_bench.env.p1_i2c_agent.monitor  i2c_ADDRESS:0x22 i2c_DATA :0x'{83} OPERATION:0x0
# NCSU_INFO:Time           1380490500: i2c_monitor::run(): test_bench.env.p1_i2c_agent.monitor  i2c_ADDRESS:0x22 i2c_DATA :0x'{44} OPERATION:0x1
# NCSU_INFO:Time           1400026500: i2c_monitor::run(): test_bench.env.p1_i2c_agent.monitor  i2c_ADDRESS:0x22 i2c_DATA :0x'{84} OPERATION:0x0
# NCSU_INFO:Time           1419562500: i2c_monitor::run(): test_bench.env.p1_i2c_agent.monitor  i2c_ADDRESS:0x22 i2c_DATA :0x'{43} OPERATION:0x1
# NCSU_INFO:Time           1439098500: i2c_monitor::run(): test_bench.env.p1_i2c_agent.monitor  i2c_ADDRESS:0x22 i2c_DATA :0x'{85} OPERATION:0x0
# NCSU_INFO:Time           1458634500: i2c_monitor::run(): test_bench.env.p1_i2c_agent.monitor  i2c_ADDRESS:0x22 i2c_DATA :0x'{42} OPERATION:0x1
# NCSU_INFO:Time           1478170500: i2c_monitor::run(): test_bench.env.p1_i2c_agent.monitor  i2c_ADDRESS:0x22 i2c_DATA :0x'{86} OPERATION:0x0
# NCSU_INFO:Time           1497706500: i2c_monitor::run(): test_bench.env.p1_i2c_agent.monitor  i2c_ADDRESS:0x22 i2c_DATA :0x'{41} OPERATION:0x1
# NCSU_INFO:Time           1517242500: i2c_monitor::run(): test_bench.env.p1_i2c_agent.monitor  i2c_ADDRESS:0x22 i2c_DATA :0x'{87} OPERATION:0x0
# NCSU_INFO:Time           1536778500: i2c_monitor::run(): test_bench.env.p1_i2c_agent.monitor  i2c_ADDRESS:0x22 i2c_DATA :0x'{40} OPERATION:0x1
# NCSU_INFO:Time           1556314500: i2c_monitor::run(): test_bench.env.p1_i2c_agent.monitor  i2c_ADDRESS:0x22 i2c_DATA :0x'{88} OPERATION:0x0
# NCSU_INFO:Time           1575850500: i2c_monitor::run(): test_bench.env.p1_i2c_agent.monitor  i2c_ADDRESS:0x22 i2c_DATA :0x'{39} OPERATION:0x1
# NCSU_INFO:Time           1595386500: i2c_monitor::run(): test_bench.env.p1_i2c_agent.monitor  i2c_ADDRESS:0x22 i2c_DATA :0x'{89} OPERATION:0x0
# NCSU_INFO:Time           1614922500: i2c_monitor::run(): test_bench.env.p1_i2c_agent.monitor  i2c_ADDRESS:0x22 i2c_DATA :0x'{38} OPERATION:0x1
# NCSU_INFO:Time           1634458500: i2c_monitor::run(): test_bench.env.p1_i2c_agent.monitor  i2c_ADDRESS:0x22 i2c_DATA :0x'{90} OPERATION:0x0
# NCSU_INFO:Time           1653994500: i2c_monitor::run(): test_bench.env.p1_i2c_agent.monitor  i2c_ADDRESS:0x22 i2c_DATA :0x'{37} OPERATION:0x1
# NCSU_INFO:Time           1673530500: i2c_monitor::run(): test_bench.env.p1_i2c_agent.monitor  i2c_ADDRESS:0x22 i2c_DATA :0x'{91} OPERATION:0x0
# NCSU_INFO:Time           1693066500: i2c_monitor::run(): test_bench.env.p1_i2c_agent.monitor  i2c_ADDRESS:0x22 i2c_DATA :0x'{36} OPERATION:0x1
# NCSU_INFO:Time           1712602500: i2c_monitor::run(): test_bench.env.p1_i2c_agent.monitor  i2c_ADDRESS:0x22 i2c_DATA :0x'{92} OPERATION:0x0
# NCSU_INFO:Time           1732138500: i2c_monitor::run(): test_bench.env.p1_i2c_agent.monitor  i2c_ADDRESS:0x22 i2c_DATA :0x'{35} OPERATION:0x1
# NCSU_INFO:Time           1751674500: i2c_monitor::run(): test_bench.env.p1_i2c_agent.monitor  i2c_ADDRESS:0x22 i2c_DATA :0x'{93} OPERATION:0x0
# NCSU_INFO:Time           1771210500: i2c_monitor::run(): test_bench.env.p1_i2c_agent.monitor  i2c_ADDRESS:0x22 i2c_DATA :0x'{34} OPERATION:0x1
# NCSU_INFO:Time           1790746500: i2c_monitor::run(): test_bench.env.p1_i2c_agent.monitor  i2c_ADDRESS:0x22 i2c_DATA :0x'{94} OPERATION:0x0
# NCSU_INFO:Time           1810282500: i2c_monitor::run(): test_bench.env.p1_i2c_agent.monitor  i2c_ADDRESS:0x22 i2c_DATA :0x'{33} OPERATION:0x1
# NCSU_INFO:Time           1829818500: i2c_monitor::run(): test_bench.env.p1_i2c_agent.monitor  i2c_ADDRESS:0x22 i2c_DATA :0x'{95} OPERATION:0x0
# NCSU_INFO:Time           1849354500: i2c_monitor::run(): test_bench.env.p1_i2c_agent.monitor  i2c_ADDRESS:0x22 i2c_DATA :0x'{32} OPERATION:0x1
# NCSU_INFO:Time           1868890500: i2c_monitor::run(): test_bench.env.p1_i2c_agent.monitor  i2c_ADDRESS:0x22 i2c_DATA :0x'{96} OPERATION:0x0
# NCSU_INFO:Time           1888426500: i2c_monitor::run(): test_bench.env.p1_i2c_agent.monitor  i2c_ADDRESS:0x22 i2c_DATA :0x'{31} OPERATION:0x1
# NCSU_INFO:Time           1907962500: i2c_monitor::run(): test_bench.env.p1_i2c_agent.monitor  i2c_ADDRESS:0x22 i2c_DATA :0x'{97} OPERATION:0x0
# NCSU_INFO:Time           1927498500: i2c_monitor::run(): test_bench.env.p1_i2c_agent.monitor  i2c_ADDRESS:0x22 i2c_DATA :0x'{30} OPERATION:0x1
# NCSU_INFO:Time           1947034500: i2c_monitor::run(): test_bench.env.p1_i2c_agent.monitor  i2c_ADDRESS:0x22 i2c_DATA :0x'{98} OPERATION:0x0
# NCSU_INFO:Time           1966570500: i2c_monitor::run(): test_bench.env.p1_i2c_agent.monitor  i2c_ADDRESS:0x22 i2c_DATA :0x'{29} OPERATION:0x1
# NCSU_INFO:Time           1986106500: i2c_monitor::run(): test_bench.env.p1_i2c_agent.monitor  i2c_ADDRESS:0x22 i2c_DATA :0x'{99} OPERATION:0x0
# NCSU_INFO:Time           2005642500: i2c_monitor::run(): test_bench.env.p1_i2c_agent.monitor  i2c_ADDRESS:0x22 i2c_DATA :0x'{28} OPERATION:0x1
# NCSU_INFO:Time           2025178500: i2c_monitor::run(): test_bench.env.p1_i2c_agent.monitor  i2c_ADDRESS:0x22 i2c_DATA :0x'{100} OPERATION:0x0
# NCSU_INFO:Time           2044714500: i2c_monitor::run(): test_bench.env.p1_i2c_agent.monitor  i2c_ADDRESS:0x22 i2c_DATA :0x'{27} OPERATION:0x1
# NCSU_INFO:Time           2064250500: i2c_monitor::run(): test_bench.env.p1_i2c_agent.monitor  i2c_ADDRESS:0x22 i2c_DATA :0x'{101} OPERATION:0x0
# NCSU_INFO:Time           2083786500: i2c_monitor::run(): test_bench.env.p1_i2c_agent.monitor  i2c_ADDRESS:0x22 i2c_DATA :0x'{26} OPERATION:0x1
# NCSU_INFO:Time           2103322500: i2c_monitor::run(): test_bench.env.p1_i2c_agent.monitor  i2c_ADDRESS:0x22 i2c_DATA :0x'{102} OPERATION:0x0
# NCSU_INFO:Time           2122858500: i2c_monitor::run(): test_bench.env.p1_i2c_agent.monitor  i2c_ADDRESS:0x22 i2c_DATA :0x'{25} OPERATION:0x1
# NCSU_INFO:Time           2142394500: i2c_monitor::run(): test_bench.env.p1_i2c_agent.monitor  i2c_ADDRESS:0x22 i2c_DATA :0x'{103} OPERATION:0x0
# NCSU_INFO:Time           2161930500: i2c_monitor::run(): test_bench.env.p1_i2c_agent.monitor  i2c_ADDRESS:0x22 i2c_DATA :0x'{24} OPERATION:0x1
# NCSU_INFO:Time           2181466500: i2c_monitor::run(): test_bench.env.p1_i2c_agent.monitor  i2c_ADDRESS:0x22 i2c_DATA :0x'{104} OPERATION:0x0
# NCSU_INFO:Time           2201002500: i2c_monitor::run(): test_bench.env.p1_i2c_agent.monitor  i2c_ADDRESS:0x22 i2c_DATA :0x'{23} OPERATION:0x1
# NCSU_INFO:Time           2220538500: i2c_monitor::run(): test_bench.env.p1_i2c_agent.monitor  i2c_ADDRESS:0x22 i2c_DATA :0x'{105} OPERATION:0x0
# NCSU_INFO:Time           2240074500: i2c_monitor::run(): test_bench.env.p1_i2c_agent.monitor  i2c_ADDRESS:0x22 i2c_DATA :0x'{22} OPERATION:0x1
# NCSU_INFO:Time           2259610500: i2c_monitor::run(): test_bench.env.p1_i2c_agent.monitor  i2c_ADDRESS:0x22 i2c_DATA :0x'{106} OPERATION:0x0
# NCSU_INFO:Time           2279146500: i2c_monitor::run(): test_bench.env.p1_i2c_agent.monitor  i2c_ADDRESS:0x22 i2c_DATA :0x'{21} OPERATION:0x1
# NCSU_INFO:Time           2298682500: i2c_monitor::run(): test_bench.env.p1_i2c_agent.monitor  i2c_ADDRESS:0x22 i2c_DATA :0x'{107} OPERATION:0x0
# NCSU_INFO:Time           2318218500: i2c_monitor::run(): test_bench.env.p1_i2c_agent.monitor  i2c_ADDRESS:0x22 i2c_DATA :0x'{20} OPERATION:0x1
# NCSU_INFO:Time           2337754500: i2c_monitor::run(): test_bench.env.p1_i2c_agent.monitor  i2c_ADDRESS:0x22 i2c_DATA :0x'{108} OPERATION:0x0
# NCSU_INFO:Time           2357290500: i2c_monitor::run(): test_bench.env.p1_i2c_agent.monitor  i2c_ADDRESS:0x22 i2c_DATA :0x'{19} OPERATION:0x1
# NCSU_INFO:Time           2376826500: i2c_monitor::run(): test_bench.env.p1_i2c_agent.monitor  i2c_ADDRESS:0x22 i2c_DATA :0x'{109} OPERATION:0x0
# NCSU_INFO:Time           2396362500: i2c_monitor::run(): test_bench.env.p1_i2c_agent.monitor  i2c_ADDRESS:0x22 i2c_DATA :0x'{18} OPERATION:0x1
# NCSU_INFO:Time           2415898500: i2c_monitor::run(): test_bench.env.p1_i2c_agent.monitor  i2c_ADDRESS:0x22 i2c_DATA :0x'{110} OPERATION:0x0
# NCSU_INFO:Time           2435434500: i2c_monitor::run(): test_bench.env.p1_i2c_agent.monitor  i2c_ADDRESS:0x22 i2c_DATA :0x'{17} OPERATION:0x1
# NCSU_INFO:Time           2454970500: i2c_monitor::run(): test_bench.env.p1_i2c_agent.monitor  i2c_ADDRESS:0x22 i2c_DATA :0x'{111} OPERATION:0x0
# NCSU_INFO:Time           2474506500: i2c_monitor::run(): test_bench.env.p1_i2c_agent.monitor  i2c_ADDRESS:0x22 i2c_DATA :0x'{16} OPERATION:0x1
# NCSU_INFO:Time           2494042500: i2c_monitor::run(): test_bench.env.p1_i2c_agent.monitor  i2c_ADDRESS:0x22 i2c_DATA :0x'{112} OPERATION:0x0
# NCSU_INFO:Time           2513578500: i2c_monitor::run(): test_bench.env.p1_i2c_agent.monitor  i2c_ADDRESS:0x22 i2c_DATA :0x'{15} OPERATION:0x1
# NCSU_INFO:Time           2533114500: i2c_monitor::run(): test_bench.env.p1_i2c_agent.monitor  i2c_ADDRESS:0x22 i2c_DATA :0x'{113} OPERATION:0x0
# NCSU_INFO:Time           2552650500: i2c_monitor::run(): test_bench.env.p1_i2c_agent.monitor  i2c_ADDRESS:0x22 i2c_DATA :0x'{14} OPERATION:0x1
# NCSU_INFO:Time           2572186500: i2c_monitor::run(): test_bench.env.p1_i2c_agent.monitor  i2c_ADDRESS:0x22 i2c_DATA :0x'{114} OPERATION:0x0
# NCSU_INFO:Time           2591722500: i2c_monitor::run(): test_bench.env.p1_i2c_agent.monitor  i2c_ADDRESS:0x22 i2c_DATA :0x'{13} OPERATION:0x1
# NCSU_INFO:Time           2611258500: i2c_monitor::run(): test_bench.env.p1_i2c_agent.monitor  i2c_ADDRESS:0x22 i2c_DATA :0x'{115} OPERATION:0x0
# NCSU_INFO:Time           2630794500: i2c_monitor::run(): test_bench.env.p1_i2c_agent.monitor  i2c_ADDRESS:0x22 i2c_DATA :0x'{12} OPERATION:0x1
# NCSU_INFO:Time           2650330500: i2c_monitor::run(): test_bench.env.p1_i2c_agent.monitor  i2c_ADDRESS:0x22 i2c_DATA :0x'{116} OPERATION:0x0
# NCSU_INFO:Time           2669866500: i2c_monitor::run(): test_bench.env.p1_i2c_agent.monitor  i2c_ADDRESS:0x22 i2c_DATA :0x'{11} OPERATION:0x1
# NCSU_INFO:Time           2689402500: i2c_monitor::run(): test_bench.env.p1_i2c_agent.monitor  i2c_ADDRESS:0x22 i2c_DATA :0x'{117} OPERATION:0x0
# NCSU_INFO:Time           2708938500: i2c_monitor::run(): test_bench.env.p1_i2c_agent.monitor  i2c_ADDRESS:0x22 i2c_DATA :0x'{10} OPERATION:0x1
# NCSU_INFO:Time           2728474500: i2c_monitor::run(): test_bench.env.p1_i2c_agent.monitor  i2c_ADDRESS:0x22 i2c_DATA :0x'{118} OPERATION:0x0
# NCSU_INFO:Time           2748010500: i2c_monitor::run(): test_bench.env.p1_i2c_agent.monitor  i2c_ADDRESS:0x22 i2c_DATA :0x'{9} OPERATION:0x1
# NCSU_INFO:Time           2767546500: i2c_monitor::run(): test_bench.env.p1_i2c_agent.monitor  i2c_ADDRESS:0x22 i2c_DATA :0x'{119} OPERATION:0x0
# NCSU_INFO:Time           2787082500: i2c_monitor::run(): test_bench.env.p1_i2c_agent.monitor  i2c_ADDRESS:0x22 i2c_DATA :0x'{8} OPERATION:0x1
# NCSU_INFO:Time           2806618500: i2c_monitor::run(): test_bench.env.p1_i2c_agent.monitor  i2c_ADDRESS:0x22 i2c_DATA :0x'{120} OPERATION:0x0
# NCSU_INFO:Time           2826154500: i2c_monitor::run(): test_bench.env.p1_i2c_agent.monitor  i2c_ADDRESS:0x22 i2c_DATA :0x'{7} OPERATION:0x1
# NCSU_INFO:Time           2845690500: i2c_monitor::run(): test_bench.env.p1_i2c_agent.monitor  i2c_ADDRESS:0x22 i2c_DATA :0x'{121} OPERATION:0x0
# NCSU_INFO:Time           2865226500: i2c_monitor::run(): test_bench.env.p1_i2c_agent.monitor  i2c_ADDRESS:0x22 i2c_DATA :0x'{6} OPERATION:0x1
# NCSU_INFO:Time           2884762500: i2c_monitor::run(): test_bench.env.p1_i2c_agent.monitor  i2c_ADDRESS:0x22 i2c_DATA :0x'{122} OPERATION:0x0
# NCSU_INFO:Time           2904298500: i2c_monitor::run(): test_bench.env.p1_i2c_agent.monitor  i2c_ADDRESS:0x22 i2c_DATA :0x'{5} OPERATION:0x1
# NCSU_INFO:Time           2923834500: i2c_monitor::run(): test_bench.env.p1_i2c_agent.monitor  i2c_ADDRESS:0x22 i2c_DATA :0x'{123} OPERATION:0x0
# NCSU_INFO:Time           2943370500: i2c_monitor::run(): test_bench.env.p1_i2c_agent.monitor  i2c_ADDRESS:0x22 i2c_DATA :0x'{4} OPERATION:0x1
# NCSU_INFO:Time           2962906500: i2c_monitor::run(): test_bench.env.p1_i2c_agent.monitor  i2c_ADDRESS:0x22 i2c_DATA :0x'{124} OPERATION:0x0
# NCSU_INFO:Time           2982442500: i2c_monitor::run(): test_bench.env.p1_i2c_agent.monitor  i2c_ADDRESS:0x22 i2c_DATA :0x'{3} OPERATION:0x1
# NCSU_INFO:Time           3001978500: i2c_monitor::run(): test_bench.env.p1_i2c_agent.monitor  i2c_ADDRESS:0x22 i2c_DATA :0x'{125} OPERATION:0x0
# NCSU_INFO:Time           3021514500: i2c_monitor::run(): test_bench.env.p1_i2c_agent.monitor  i2c_ADDRESS:0x22 i2c_DATA :0x'{2} OPERATION:0x1
# NCSU_INFO:Time           3041050500: i2c_monitor::run(): test_bench.env.p1_i2c_agent.monitor  i2c_ADDRESS:0x22 i2c_DATA :0x'{126} OPERATION:0x0
# NCSU_INFO:Time           3060426500: i2c_monitor::run(): test_bench.env.p1_i2c_agent.monitor  i2c_ADDRESS:0x22 i2c_DATA :0x'{1} OPERATION:0x1
# NCSU_INFO:Time           3079812500: i2c_monitor::run(): test_bench.env.p1_i2c_agent.monitor  i2c_ADDRESS:0x22 i2c_DATA :0x'{127} OPERATION:0x0
# NCSU_INFO:Time           3099678500: i2c_monitor::run(): test_bench.env.p1_i2c_agent.monitor  i2c_ADDRESS:0x22 i2c_DATA :0x'{0} OPERATION:0x1
# ****************************************************************************
# ****************************************************************************
# **************************SIMULATION HAS FINISHED***************************
# ****************************************************************************
# ****************************************************************************
# joined 
# gen run complete 
# Break key hit
# Simulation stop requested.
#  quit
# End time: 16:08:36 on Apr 04,2023, Elapsed time: 0:00:28
# Errors: 0, Warnings: 0
